^D:\C_TERMPROJECT\LIBRARY\LIBRARY\DEBUG\BOOK.OBJ|D:\C_TERMPROJECT\LIBRARY\LIBRARY\DEBUG\LIBRARY.OBJ|D:\C_TERMPROJECT\LIBRARY\LIBRARY\DEBUG\MAIN.OBJ|D:\C_TERMPROJECT\LIBRARY\LIBRARY\DEBUG\UI.OBJ
D:\C_TERMPROJECT\LIBRARY\DEBUG\LIBRARY.EXE
D:\C_TERMPROJECT\LIBRARY\DEBUG\LIBRARY.ILK
D:\C_TERMPROJECT\LIBRARY\DEBUG\LIBRARY.PDB
